module github.com/sapiderman/seed-go

go 1.16

require (
	github.com/asaskevich/govalidator v0.0.0-20200907205600-7a23bdc65eef
	github.com/dgrijalva/jwt-go v3.2.0+incompatible
	github.com/gofrs/uuid v3.4.0+incompatible
	github.com/gorilla/mux v1.8.0
	github.com/jackc/pgx/v4 v4.11.0
	github.com/jmoiron/sqlx v1.3.4
	github.com/lib/pq v1.10.2
	github.com/matoous/go-nanoid/v2 v2.0.0
	github.com/nelkinda/health-go v0.0.1
	github.com/sirupsen/logrus v1.8.1
	github.com/spf13/viper v1.7.1
	golang.org/x/crypto v0.0.0-20210322153248-0c34fe9e7dc2
)
